# TODO: ptag for r15530 (601414 and 601415) should be harmonised with other files when we switch to new derivations (March production)

mc23_13p6TeV.601414.PhH7EG_A14_ttbar_hdamp258p75_Single_Lep.deriv.DAOD_PHYS.e8514_s4162_r15540_p6266
mc23_13p6TeV.601414.PhH7EG_A14_ttbar_hdamp258p75_Single_Lep.deriv.DAOD_PHYS.e8514_s4159_r15530_p6491

mc23_13p6TeV.601415.PhH7EG_A14_ttbar_hdamp258p75_Dilep.deriv.DAOD_PHYS.e8514_s4162_r15540_p6266
mc23_13p6TeV.601415.PhH7EG_A14_ttbar_hdamp258p75_Dilep.deriv.DAOD_PHYS.e8514_s4159_r15530_p6491

mc23_13p6TeV.601398.PhPy8EG_A14_ttbar_hdamp517p5_SingleLep.deriv.DAOD_PHYS.e8514_s4159_r15530_p6266
mc23_13p6TeV.601398.PhPy8EG_A14_ttbar_hdamp517p5_SingleLep.deriv.DAOD_PHYS.e8514_s4162_r15540_p6266 

mc23_13p6TeV.601399.PhPy8EG_A14_ttbar_hdamp517p5_dil.deriv.DAOD_PHYS.e8514_s4159_r15530_p6266
mc23_13p6TeV.601399.PhPy8EG_A14_ttbar_hdamp517p5_dil.deriv.DAOD_PHYS.e8514_s4162_r15540_p6266

mc23_13p6TeV.601491.PhPy8EG_A14_ttbar_pThard1_dil.deriv.DAOD_PHYS.e8549_s4162_r14622_p6266
mc23_13p6TeV.601491.PhPy8EG_A14_ttbar_pThard1_dil.deriv.DAOD_PHYS.e8549_s4159_r15224_p6266

mc23_13p6TeV.601495.PhPy8EG_A14_ttbar_pThard1_allhad.deriv.DAOD_PHYS.e8549_s4159_r15224_p6266
mc23_13p6TeV.601495.PhPy8EG_A14_ttbar_pThard1_allhad.deriv.DAOD_PHYS.e8549_s4162_r14622_p6266

mc23_13p6TeV.601497.PhPy8EG_A14_ttbar_pThard1_singlelep.deriv.DAOD_PHYS.e8549_s4162_r14622_p6266
mc23_13p6TeV.601497.PhPy8EG_A14_ttbar_pThard1_singlelep.deriv.DAOD_PHYS.e8549_s4159_r15224_p6266