mc20_13TeV.700792.Sh_2214_Ztautau_maxHTpTV2_BFilter.deriv.DAOD_PHYS.e8527_s3681_r13144_p6026
mc20_13TeV.700792.Sh_2214_Ztautau_maxHTpTV2_BFilter.deriv.DAOD_PHYS.e8527_s3681_r13145_p6026
mc20_13TeV.700792.Sh_2214_Ztautau_maxHTpTV2_BFilter.deriv.DAOD_PHYS.e8527_s3681_r13167_p6026

mc20_13TeV.700793.Sh_2214_Ztautau_maxHTpTV2_CFilterBVeto.deriv.DAOD_PHYS.e8527_s3681_r13144_p6026
mc20_13TeV.700793.Sh_2214_Ztautau_maxHTpTV2_CFilterBVeto.deriv.DAOD_PHYS.e8527_s3681_r13145_p6026
mc20_13TeV.700793.Sh_2214_Ztautau_maxHTpTV2_CFilterBVeto.deriv.DAOD_PHYS.e8527_s3681_r13167_p6026

mc20_13TeV.700794.Sh_2214_Ztautau_maxHTpTV2_CVetoBVeto.deriv.DAOD_PHYS.e8527_s3681_r13144_p6026
mc20_13TeV.700794.Sh_2214_Ztautau_maxHTpTV2_CVetoBVeto.deriv.DAOD_PHYS.e8527_s3681_r13145_p6026
mc20_13TeV.700794.Sh_2214_Ztautau_maxHTpTV2_CVetoBVeto.deriv.DAOD_PHYS.e8527_s3681_r13167_p6026

mc20_13TeV.700901.Sh_2214_Ztt_maxHTpTV2_Mll10_40_BFilter.deriv.DAOD_PHYS.e8536_s3681_r13144_p6026
mc20_13TeV.700901.Sh_2214_Ztt_maxHTpTV2_Mll10_40_BFilter.deriv.DAOD_PHYS.e8536_s3681_r13145_p6026
mc20_13TeV.700901.Sh_2214_Ztt_maxHTpTV2_Mll10_40_BFilter.deriv.DAOD_PHYS.e8536_s3681_r13167_p6026

mc20_13TeV.700902.Sh_2214_Ztt_maxHTpTV2_Mll10_40_CFilterBVeto.deriv.DAOD_PHYS.e8536_s3681_r13144_p6026
mc20_13TeV.700902.Sh_2214_Ztt_maxHTpTV2_Mll10_40_CFilterBVeto.deriv.DAOD_PHYS.e8536_s3681_r13145_p6026
mc20_13TeV.700902.Sh_2214_Ztt_maxHTpTV2_Mll10_40_CFilterBVeto.deriv.DAOD_PHYS.e8536_s3681_r13167_p6026

mc20_13TeV.700903.Sh_2214_Ztt_maxHTpTV2_Mll10_40_CVetoBVeto.deriv.DAOD_PHYS.e8536_s3681_r13144_p6026
mc20_13TeV.700903.Sh_2214_Ztt_maxHTpTV2_Mll10_40_CVetoBVeto.deriv.DAOD_PHYS.e8536_s3681_r13145_p6026
mc20_13TeV.700903.Sh_2214_Ztt_maxHTpTV2_Mll10_40_CVetoBVeto.deriv.DAOD_PHYS.e8536_s3681_r13167_p6026

mc20_13TeV.700320.Sh_2211_Zee_maxHTpTV2_BFilter.deriv.DAOD_PHYS.e8351_s3681_r13144_p5980
mc20_13TeV.700320.Sh_2211_Zee_maxHTpTV2_BFilter.deriv.DAOD_PHYS.e8351_s3681_r13145_p5980
mc20_13TeV.700320.Sh_2211_Zee_maxHTpTV2_BFilter.deriv.DAOD_PHYS.e8351_s3681_r13167_p5980

mc20_13TeV.700321.Sh_2211_Zee_maxHTpTV2_CFilterBVeto.deriv.DAOD_PHYS.e8351_s3681_r13144_p5980
mc20_13TeV.700321.Sh_2211_Zee_maxHTpTV2_CFilterBVeto.deriv.DAOD_PHYS.e8351_s3681_r13145_p5980
mc20_13TeV.700321.Sh_2211_Zee_maxHTpTV2_CFilterBVeto.deriv.DAOD_PHYS.e8351_s3681_r13167_p5980

mc20_13TeV.700322.Sh_2211_Zee_maxHTpTV2_CVetoBVeto.deriv.DAOD_PHYS.e8351_s3681_r13144_p5980
mc20_13TeV.700322.Sh_2211_Zee_maxHTpTV2_CVetoBVeto.deriv.DAOD_PHYS.e8351_s3681_r13145_p5980
mc20_13TeV.700322.Sh_2211_Zee_maxHTpTV2_CVetoBVeto.deriv.DAOD_PHYS.e8351_s3681_r13167_p5980

mc20_13TeV.700323.Sh_2211_Zmumu_maxHTpTV2_BFilter.deriv.DAOD_PHYS.e8351_s3681_r13144_p5980
mc20_13TeV.700323.Sh_2211_Zmumu_maxHTpTV2_BFilter.deriv.DAOD_PHYS.e8351_s3681_r13145_p5980
mc20_13TeV.700323.Sh_2211_Zmumu_maxHTpTV2_BFilter.deriv.DAOD_PHYS.e8351_s3681_r13167_p5980

mc20_13TeV.700324.Sh_2211_Zmumu_maxHTpTV2_CFilterBVeto.deriv.DAOD_PHYS.e8351_s3681_r13144_p5980
mc20_13TeV.700324.Sh_2211_Zmumu_maxHTpTV2_CFilterBVeto.deriv.DAOD_PHYS.e8351_s3681_r13145_p5980
mc20_13TeV.700324.Sh_2211_Zmumu_maxHTpTV2_CFilterBVeto.deriv.DAOD_PHYS.e8351_s3681_r13167_p5980

mc20_13TeV.700325.Sh_2211_Zmumu_maxHTpTV2_CVetoBVeto.deriv.DAOD_PHYS.e8351_s3681_r13144_p5980
mc20_13TeV.700325.Sh_2211_Zmumu_maxHTpTV2_CVetoBVeto.deriv.DAOD_PHYS.e8351_s3681_r13145_p5980
mc20_13TeV.700325.Sh_2211_Zmumu_maxHTpTV2_CVetoBVeto.deriv.DAOD_PHYS.e8351_s3681_r13167_p5980
