# ggF AF3
mc20_13TeV.603403.PhPy8EG_PDF4LHC21_HHbbbb_chhh0p0.deriv.DAOD_PHYS.e8564_a907_r14859_p6490
mc20_13TeV.603403.PhPy8EG_PDF4LHC21_HHbbbb_chhh0p0.deriv.DAOD_PHYS.e8564_a907_r14860_p6490
mc20_13TeV.603403.PhPy8EG_PDF4LHC21_HHbbbb_chhh0p0.deriv.DAOD_PHYS.e8564_a907_r14861_p6490
mc20_13TeV.603404.PhPy8EG_PDF4LHC21_HHbbbb_chhh1p0.deriv.DAOD_PHYS.e8564_a907_r14859_p6490
mc20_13TeV.603404.PhPy8EG_PDF4LHC21_HHbbbb_chhh1p0.deriv.DAOD_PHYS.e8564_a907_r14860_p6490
mc20_13TeV.603404.PhPy8EG_PDF4LHC21_HHbbbb_chhh1p0.deriv.DAOD_PHYS.e8564_a907_r14861_p6490
mc20_13TeV.603405.PhPy8EG_PDF4LHC21_HHbbbb_chhh5p0.deriv.DAOD_PHYS.e8564_a907_r14859_p6490
mc20_13TeV.603405.PhPy8EG_PDF4LHC21_HHbbbb_chhh5p0.deriv.DAOD_PHYS.e8564_a907_r14860_p6490
mc20_13TeV.603405.PhPy8EG_PDF4LHC21_HHbbbb_chhh5p0.deriv.DAOD_PHYS.e8564_a907_r14861_p6490
mc20_13TeV.603406.PhPy8EG_PDF4LHC21_HHbbbb_chhh10p0.deriv.DAOD_PHYS.e8564_a907_r14859_p6490
mc20_13TeV.603406.PhPy8EG_PDF4LHC21_HHbbbb_chhh10p0.deriv.DAOD_PHYS.e8564_a907_r14860_p6490
mc20_13TeV.603406.PhPy8EG_PDF4LHC21_HHbbbb_chhh10p0.deriv.DAOD_PHYS.e8564_a907_r14861_p6490
mc20_13TeV.603407.PhPy8EG_PDF4LHC21_HHbbbb_chhh2p5.deriv.DAOD_PHYS.e8564_a907_r14859_p6490
mc20_13TeV.603407.PhPy8EG_PDF4LHC21_HHbbbb_chhh2p5.deriv.DAOD_PHYS.e8564_a907_r14860_p6490
mc20_13TeV.603407.PhPy8EG_PDF4LHC21_HHbbbb_chhh2p5.deriv.DAOD_PHYS.e8564_a907_r14861_p6490
mc20_13TeV.603408.PhPy8EG_PDF4LHC21_HHbbbb_chhhm1p0.deriv.DAOD_PHYS.e8564_a907_r14859_p6490
mc20_13TeV.603408.PhPy8EG_PDF4LHC21_HHbbbb_chhhm1p0.deriv.DAOD_PHYS.e8564_a907_r14860_p6490
mc20_13TeV.603408.PhPy8EG_PDF4LHC21_HHbbbb_chhhm1p0.deriv.DAOD_PHYS.e8564_a907_r14861_p6490
# ggF FullSim
mc20_13TeV.603404.PhPy8EG_PDF4LHC21_HHbbbb_chhh1p0.deriv.DAOD_PHYS.e8564_s3797_r13144_p6490
mc20_13TeV.603404.PhPy8EG_PDF4LHC21_HHbbbb_chhh1p0.deriv.DAOD_PHYS.e8564_s3797_r13145_p6490
mc20_13TeV.603404.PhPy8EG_PDF4LHC21_HHbbbb_chhh1p0.deriv.DAOD_PHYS.e8564_s3797_r13167_p6490

# VBF
mc20_13TeV.537533.MGPy8EG_hh_bbbb_vbf_novhh_5fs_l0cvv0cv1.deriv.DAOD_PHYS.e8555_a907_r14859_p6490
mc20_13TeV.537533.MGPy8EG_hh_bbbb_vbf_novhh_5fs_l0cvv0cv1.deriv.DAOD_PHYS.e8555_a907_r14860_p6490
mc20_13TeV.537533.MGPy8EG_hh_bbbb_vbf_novhh_5fs_l0cvv0cv1.deriv.DAOD_PHYS.e8555_a907_r14861_p6490
mc20_13TeV.537534.MGPy8EG_hh_bbbb_vbf_novhh_5fs_l0cvv1cv1.deriv.DAOD_PHYS.e8555_a907_r14859_p6490
mc20_13TeV.537534.MGPy8EG_hh_bbbb_vbf_novhh_5fs_l0cvv1cv1.deriv.DAOD_PHYS.e8555_a907_r14860_p6490
mc20_13TeV.537534.MGPy8EG_hh_bbbb_vbf_novhh_5fs_l0cvv1cv1.deriv.DAOD_PHYS.e8555_a907_r14861_p6490
mc20_13TeV.537535.MGPy8EG_hh_bbbb_vbf_novhh_5fs_l10cvv1cv1.deriv.DAOD_PHYS.e8555_a907_r14859_p6490
mc20_13TeV.537535.MGPy8EG_hh_bbbb_vbf_novhh_5fs_l10cvv1cv1.deriv.DAOD_PHYS.e8555_a907_r14860_p6490
mc20_13TeV.537535.MGPy8EG_hh_bbbb_vbf_novhh_5fs_l10cvv1cv1.deriv.DAOD_PHYS.e8555_a907_r14861_p6490
mc20_13TeV.537536.MGPy8EG_hh_bbbb_vbf_novhh_5fs_l1cvv0cv1.deriv.DAOD_PHYS.e8555_a907_r14859_p6490
mc20_13TeV.537536.MGPy8EG_hh_bbbb_vbf_novhh_5fs_l1cvv0cv1.deriv.DAOD_PHYS.e8555_a907_r14860_p6490
mc20_13TeV.537536.MGPy8EG_hh_bbbb_vbf_novhh_5fs_l1cvv0cv1.deriv.DAOD_PHYS.e8555_a907_r14861_p6490
mc20_13TeV.537537.MGPy8EG_hh_bbbb_vbf_novhh_5fs_l1cvv0p5cv1.deriv.DAOD_PHYS.e8555_a907_r14859_p6490
mc20_13TeV.537537.MGPy8EG_hh_bbbb_vbf_novhh_5fs_l1cvv0p5cv1.deriv.DAOD_PHYS.e8555_a907_r14860_p6490
mc20_13TeV.537537.MGPy8EG_hh_bbbb_vbf_novhh_5fs_l1cvv0p5cv1.deriv.DAOD_PHYS.e8555_a907_r14861_p6490
mc20_13TeV.537538.MGPy8EG_hh_bbbb_vbf_novhh_5fs_l1cvv1cv0p5.deriv.DAOD_PHYS.e8555_a907_r14859_p6490
mc20_13TeV.537538.MGPy8EG_hh_bbbb_vbf_novhh_5fs_l1cvv1cv0p5.deriv.DAOD_PHYS.e8555_a907_r14860_p6490
mc20_13TeV.537538.MGPy8EG_hh_bbbb_vbf_novhh_5fs_l1cvv1cv0p5.deriv.DAOD_PHYS.e8555_a907_r14861_p6490
mc20_13TeV.537539.MGPy8EG_hh_bbbb_vbf_novhh_5fs_l1cvv1cv1p5.deriv.DAOD_PHYS.e8555_a907_r14859_p6490
mc20_13TeV.537539.MGPy8EG_hh_bbbb_vbf_novhh_5fs_l1cvv1cv1p5.deriv.DAOD_PHYS.e8555_a907_r14860_p6490
mc20_13TeV.537539.MGPy8EG_hh_bbbb_vbf_novhh_5fs_l1cvv1cv1p5.deriv.DAOD_PHYS.e8555_a907_r14861_p6490
mc20_13TeV.537540.MGPy8EG_hh_bbbb_vbf_novhh_5fs_l1cvv1cv1.deriv.DAOD_PHYS.e8555_a907_r14859_p6490
mc20_13TeV.537540.MGPy8EG_hh_bbbb_vbf_novhh_5fs_l1cvv1cv1.deriv.DAOD_PHYS.e8555_a907_r14860_p6490
mc20_13TeV.537540.MGPy8EG_hh_bbbb_vbf_novhh_5fs_l1cvv1cv1.deriv.DAOD_PHYS.e8555_a907_r14861_p6490
mc20_13TeV.537541.MGPy8EG_hh_bbbb_vbf_novhh_5fs_l1cvv1p5cv1.deriv.DAOD_PHYS.e8555_a907_r14859_p6490
mc20_13TeV.537541.MGPy8EG_hh_bbbb_vbf_novhh_5fs_l1cvv1p5cv1.deriv.DAOD_PHYS.e8555_a907_r14860_p6490
mc20_13TeV.537541.MGPy8EG_hh_bbbb_vbf_novhh_5fs_l1cvv1p5cv1.deriv.DAOD_PHYS.e8555_a907_r14861_p6490
mc20_13TeV.537542.MGPy8EG_hh_bbbb_vbf_novhh_5fs_l1cvv2cv1.deriv.DAOD_PHYS.e8555_a907_r14859_p6490
mc20_13TeV.537542.MGPy8EG_hh_bbbb_vbf_novhh_5fs_l1cvv2cv1.deriv.DAOD_PHYS.e8555_a907_r14860_p6490
mc20_13TeV.537542.MGPy8EG_hh_bbbb_vbf_novhh_5fs_l1cvv2cv1.deriv.DAOD_PHYS.e8555_a907_r14861_p6490
mc20_13TeV.537543.MGPy8EG_hh_bbbb_vbf_novhh_5fs_l1cvv3cv1.deriv.DAOD_PHYS.e8555_a907_r14859_p6490
mc20_13TeV.537543.MGPy8EG_hh_bbbb_vbf_novhh_5fs_l1cvv3cv1.deriv.DAOD_PHYS.e8555_a907_r14860_p6490
mc20_13TeV.537543.MGPy8EG_hh_bbbb_vbf_novhh_5fs_l1cvv3cv1.deriv.DAOD_PHYS.e8555_a907_r14861_p6490
mc20_13TeV.537544.MGPy8EG_hh_bbbb_vbf_novhh_5fs_l2cvv1cv1.deriv.DAOD_PHYS.e8555_a907_r14859_p6490
mc20_13TeV.537544.MGPy8EG_hh_bbbb_vbf_novhh_5fs_l2cvv1cv1.deriv.DAOD_PHYS.e8555_a907_r14860_p6490
mc20_13TeV.537544.MGPy8EG_hh_bbbb_vbf_novhh_5fs_l2cvv1cv1.deriv.DAOD_PHYS.e8555_a907_r14861_p6490
mc20_13TeV.537545.MGPy8EG_hh_bbbb_vbf_novhh_5fs_l5mcvv1cv0p5.deriv.DAOD_PHYS.e8555_a907_r14859_p6490
mc20_13TeV.537545.MGPy8EG_hh_bbbb_vbf_novhh_5fs_l5mcvv1cv0p5.deriv.DAOD_PHYS.e8555_a907_r14860_p6490
mc20_13TeV.537545.MGPy8EG_hh_bbbb_vbf_novhh_5fs_l5mcvv1cv0p5.deriv.DAOD_PHYS.e8555_a907_r14861_p6490

# VBF EFT aQGC
# SM and linear terms
mc20_13TeV.545851.MGPy8EG_hhjj_bbbb_vbf_EFT_SM.deriv.DAOD_PHYS.e8575_e8455_a907_r14861_r14919_p6490
mc20_13TeV.545851.MGPy8EG_hhjj_bbbb_vbf_EFT_SM.deriv.DAOD_PHYS.e8575_e8455_a907_r14860_r14919_p6490
mc20_13TeV.545851.MGPy8EG_hhjj_bbbb_vbf_EFT_SM.deriv.DAOD_PHYS.e8575_e8455_a907_r14859_r14919_p6490
mc20_13TeV.545852.MGPy8EG_hhjj_bbbb_vbf_S0S2_15_Int.deriv.DAOD_PHYS.e8575_e8455_a907_r14860_r14919_p6490
mc20_13TeV.545852.MGPy8EG_hhjj_bbbb_vbf_S0S2_15_Int.deriv.DAOD_PHYS.e8575_e8455_a907_r14861_r14919_p6490
mc20_13TeV.545852.MGPy8EG_hhjj_bbbb_vbf_S0S2_15_Int.deriv.DAOD_PHYS.e8575_e8455_a907_r14859_r14919_p6490
mc20_13TeV.545853.MGPy8EG_hhjj_bbbb_vbf_S1_10_Int.deriv.DAOD_PHYS.e8575_e8455_a907_r14860_r14919_p6490
mc20_13TeV.545853.MGPy8EG_hhjj_bbbb_vbf_S1_10_Int.deriv.DAOD_PHYS.e8575_e8455_a907_r14861_r14919_p6490
mc20_13TeV.545853.MGPy8EG_hhjj_bbbb_vbf_S1_10_Int.deriv.DAOD_PHYS.e8575_e8455_a907_r14859_r14919_p6490
# Quadratic terms
mc20_13TeV.560023.MGPy8EG_hhjj_vbf_M0_1_Quad.deriv.DAOD_PHYS.e8575_e8455_a907_r14861_r14919_p6490
mc20_13TeV.560023.MGPy8EG_hhjj_vbf_M0_1_Quad.deriv.DAOD_PHYS.e8575_e8455_a907_r14860_r14919_p6490
mc20_13TeV.560023.MGPy8EG_hhjj_vbf_M0_1_Quad.deriv.DAOD_PHYS.e8575_e8455_a907_r14859_r14919_p6490
mc20_13TeV.560024.MGPy8EG_hhjj_vbf_M1_4_Quad.deriv.DAOD_PHYS.e8575_e8455_a907_r14861_r14919_p6490
mc20_13TeV.560024.MGPy8EG_hhjj_vbf_M1_4_Quad.deriv.DAOD_PHYS.e8575_e8455_a907_r14860_r14919_p6490
mc20_13TeV.560024.MGPy8EG_hhjj_vbf_M1_4_Quad.deriv.DAOD_PHYS.e8575_e8455_a907_r14859_r14919_p6490
mc20_13TeV.560025.MGPy8EG_hhjj_vbf_M2_1p5_Quad.deriv.DAOD_PHYS.e8575_e8455_a907_r14859_r14919_p6490
mc20_13TeV.560025.MGPy8EG_hhjj_vbf_M2_1p5_Quad.deriv.DAOD_PHYS.e8575_e8455_a907_r14860_r14919_p6490
mc20_13TeV.560025.MGPy8EG_hhjj_vbf_M2_1p5_Quad.deriv.DAOD_PHYS.e8575_e8455_a907_r14861_r14919_p6490
mc20_13TeV.560026.MGPy8EG_hhjj_vbf_M3_6_Quad.deriv.DAOD_PHYS.e8575_e8455_a907_r14860_r14919_p6490
mc20_13TeV.560026.MGPy8EG_hhjj_vbf_M3_6_Quad.deriv.DAOD_PHYS.e8575_e8455_a907_r14861_r14919_p6490
mc20_13TeV.560026.MGPy8EG_hhjj_vbf_M3_6_Quad.deriv.DAOD_PHYS.e8575_e8455_a907_r14859_r14919_p6490
mc20_13TeV.560027.MGPy8EG_hhjj_vbf_M4_4_Quad.deriv.DAOD_PHYS.e8575_e8455_a907_r14860_r14919_p6490
mc20_13TeV.560027.MGPy8EG_hhjj_vbf_M4_4_Quad.deriv.DAOD_PHYS.e8575_e8455_a907_r14859_r14919_p6490
mc20_13TeV.560027.MGPy8EG_hhjj_vbf_M4_4_Quad.deriv.DAOD_PHYS.e8575_e8455_a907_r14861_r14919_p6490
mc20_13TeV.560028.MGPy8EG_hhjj_vbf_M5_6_Quad.deriv.DAOD_PHYS.e8575_e8455_a907_r14860_r14919_p6490
mc20_13TeV.560028.MGPy8EG_hhjj_vbf_M5_6_Quad.deriv.DAOD_PHYS.e8575_e8455_a907_r14859_r14919_p6490
mc20_13TeV.560028.MGPy8EG_hhjj_vbf_M5_6_Quad.deriv.DAOD_PHYS.e8575_e8455_a907_r14861_r14919_p6490
mc20_13TeV.560029.MGPy8EG_hhjj_vbf_M7_7_Quad.deriv.DAOD_PHYS.e8575_e8455_a907_r14860_r14919_p6490
mc20_13TeV.560029.MGPy8EG_hhjj_vbf_M7_7_Quad.deriv.DAOD_PHYS.e8575_e8455_a907_r14859_r14919_p6490
mc20_13TeV.560029.MGPy8EG_hhjj_vbf_M7_7_Quad.deriv.DAOD_PHYS.e8575_e8455_a907_r14861_r14919_p6490
mc20_13TeV.560030.MGPy8EG_hhjj_vbf_M9_10_Quad.deriv.DAOD_PHYS.e8575_e8455_a907_r14860_r14919_p6490
mc20_13TeV.560030.MGPy8EG_hhjj_vbf_M9_10_Quad.deriv.DAOD_PHYS.e8575_e8455_a907_r14861_r14919_p6490
mc20_13TeV.560030.MGPy8EG_hhjj_vbf_M9_10_Quad.deriv.DAOD_PHYS.e8575_e8455_a907_r14859_r14919_p6490
mc20_13TeV.560031.MGPy8EG_hhjj_vbf_S0S2_15_Quad.deriv.DAOD_PHYS.e8575_e8455_a907_r14861_r14919_p6490
mc20_13TeV.560031.MGPy8EG_hhjj_vbf_S0S2_15_Quad.deriv.DAOD_PHYS.e8575_e8455_a907_r14859_r14919_p6490
mc20_13TeV.560031.MGPy8EG_hhjj_vbf_S0S2_15_Quad.deriv.DAOD_PHYS.e8575_e8455_a907_r14860_r14919_p6490
# ---> 560032 r14861 missing
mc20_13TeV.560032.MGPy8EG_hhjj_vbf_S1_10_Quad.deriv.DAOD_PHYS.e8575_e8455_a907_r14860_r14919_p6490
mc20_13TeV.560032.MGPy8EG_hhjj_vbf_S1_10_Quad.deriv.DAOD_PHYS.e8575_e8455_a907_r14859_r14919_p6490
mc20_13TeV.560033.MGPy8EG_hhjj_vbf_M1odd_1p5_Quad.deriv.DAOD_PHYS.e8575_e8455_a907_r14859_r14919_p6490
mc20_13TeV.560033.MGPy8EG_hhjj_vbf_M1odd_1p5_Quad.deriv.DAOD_PHYS.e8575_e8455_a907_r14860_r14919_p6490
mc20_13TeV.560033.MGPy8EG_hhjj_vbf_M1odd_1p5_Quad.deriv.DAOD_PHYS.e8575_e8455_a907_r14861_r14919_p6490
mc20_13TeV.560034.MGPy8EG_hhjj_vbf_M2odd_5_Quad.deriv.DAOD_PHYS.e8575_e8455_a907_r14860_r14919_p6490
mc20_13TeV.560034.MGPy8EG_hhjj_vbf_M2odd_5_Quad.deriv.DAOD_PHYS.e8575_e8455_a907_r14859_r14919_p6490
mc20_13TeV.560034.MGPy8EG_hhjj_vbf_M2odd_5_Quad.deriv.DAOD_PHYS.e8575_e8455_a907_r14861_r14919_p6490
mc20_13TeV.560035.MGPy8EG_hhjj_vbf_M4odd_8_Quad.deriv.DAOD_PHYS.e8575_e8455_a907_r14859_r14919_p6490
mc20_13TeV.560035.MGPy8EG_hhjj_vbf_M4odd_8_Quad.deriv.DAOD_PHYS.e8575_e8455_a907_r14860_r14919_p6490
mc20_13TeV.560035.MGPy8EG_hhjj_vbf_M4odd_8_Quad.deriv.DAOD_PHYS.e8575_e8455_a907_r14861_r14919_p6490
mc20_13TeV.560036.MGPy8EG_hhjj_vbf_M5odd_0p5_Quad.deriv.DAOD_PHYS.e8575_e8455_a907_r14861_r14919_p6490
mc20_13TeV.560036.MGPy8EG_hhjj_vbf_M5odd_0p5_Quad.deriv.DAOD_PHYS.e8575_e8455_a907_r14859_r14919_p6490
mc20_13TeV.560036.MGPy8EG_hhjj_vbf_M5odd_0p5_Quad.deriv.DAOD_PHYS.e8575_e8455_a907_r14860_r14919_p6490
